(module M0805 (layer F.Cu) (tedit 0)
  (descr "<b>RESISTOR</b><p>\nMELF 0.10 W")
  (fp_text reference R1 (at -1.016 -1.016) (layer F.SilkS)
    (effects (font (size 1.2065 1.2065) (thickness 0.1016)) (justify right top))
  )
  (fp_text value 47K (at -1.016 2.286) (layer F.Fab)
    (effects (font (size 1.2065 1.2065) (thickness 0.1016)) (justify right top))
  )
  (fp_line (start -1.973 -0.983) (end 1.973 -0.983) (layer Dwgs.User) (width 0.0508))
  (fp_line (start 1.973 0.983) (end -1.973 0.983) (layer Dwgs.User) (width 0.0508))
  (fp_line (start -1.973 0.983) (end -1.973 -0.983) (layer Dwgs.User) (width 0.0508))
  (fp_line (start 1.973 -0.983) (end 1.973 0.983) (layer Dwgs.User) (width 0.0508))
  (fp_line (start 0.7112 -0.635) (end -0.7112 -0.635) (layer F.Fab) (width 0.1524))
  (fp_line (start 0.7112 0.635) (end -0.7112 0.635) (layer F.Fab) (width 0.1524))
  (fp_poly (pts (xy -1.0414 0.7112) (xy -0.6858 0.7112) (xy -0.6858 -0.7112) (xy -1.0414 -0.7112)) (layer F.Fab) (width 0))
  (fp_poly (pts (xy 0.6858 0.7112) (xy 1.0414 0.7112) (xy 1.0414 -0.7112) (xy 0.6858 -0.7112)) (layer F.Fab) (width 0))
  (fp_poly (pts (xy -0.1999 0.5999) (xy 0.1999 0.5999) (xy 0.1999 -0.5999) (xy -0.1999 -0.5999)) (layer F.Adhes) (width 0))
  (pad 1 smd rect (at -0.95 0) (size 1.3 1.6) (layers F.Cu F.Paste F.Mask)
    (solder_mask_margin 0.0508))
  (pad 2 smd rect (at 0.95 0) (size 1.3 1.6) (layers F.Cu F.Paste F.Mask)
    (solder_mask_margin 0.0508))
)
